Análisis series temporales con Machine Learning
…
Usaremos tambíen los diferentes componentes de la variables dependiente como variables independientes para nuestros modelos.

df_ts <- data.frame(df_ts, descomposicion[,4:7]) %>% as_tsibble(index = Fecha_entrada)

df_ts

## # A tsibble: 793 x 8 [1D]
##    Fecha_entrada reservas lead_time   adr trend season_year season_week
##    <date>           <dbl>     <dbl> <dbl> <dbl>       <dbl>       <dbl>
##  1 2015-07-01         122     187.   92.8  98.7       22.3       -8.44 
##  2 2015-07-02          93     153.   82.2  96.2        6.13      -9.92 
##  3 2015-07-03          56      72.9  97.2  93.6      -35.4        0.436
##  4 2015-07-04          88     155.   85.6  91.4      -24.1       31.0  
##  5 2015-07-05          53      83.6 100.   89.2       -9.66     -32.9  
##  6 2015-07-06          75     144.   90.5  87.3      -45.6       42.4  
##  7 2015-07-07          54      99.9  92.6  85.5        1.08     -22.1  
##  8 2015-07-08          69     171.   80.0  85.4       -3.47      -9.03 
##  9 2015-07-09          80     181.   80.6  85.2      -22.5      -10.3  
## 10 2015-07-10          51      73.3 112.   86.1      -14.5        0.933
## # ... with 783 more rows, and 1 more variable: remainder <dbl>
…
