Clasificacion de churn de producto bancario
…
df_train_recipe <- prep(recipe, training = df_train)  

summary(df_train_recipe)  

## # A tibble: 25 x 4
##    variable          type    role      source  
##    <chr>             <chr>   <chr>     <chr>   
##  1 age               numeric predictor original
##  2 balance           numeric predictor original
##  3 day               numeric predictor original
##  4 month             numeric predictor original
##  5 duration          numeric predictor original
##  6 campaign          numeric predictor original
##  7 previous          numeric predictor original
##  8 y                 nominal outcome   original
##  9 job_self_employed numeric predictor derived 
## 10 job_with_job      numeric predictor derived 
## # ... with 15 more rows
…
